ISDS 3105 mid-term Exam
…
POLICE DEPARTMENT
196

PURCHASING
1

The unique department names are: POLICE DEPARTMENT, LIBRARY BOARD OF CONTROL, FIRE DEPARTMENT, HUMAN DEVELOPMENT AND SERVICES, EMERGENCY MEDICAL SERVICES, DEPARTMENT OF PUBLIC WORKS, DEPT OF MAINTENANCE, FINANCE DEPARTMENT, OFFICE OF THE MAYOR-PRESIDENT, CITY COURT, PARISH ATTORNEY, DEPT OF TRANSPORTATION AND DRAINAGE, GREATER BATON ROUGE AIRPORT DISTRICT, DEPT OF DEVELOPMENT, JUVENILE SERVICES, DEPT OF FLEET MANAGEMENT, METROPOLITAN COUNCIL, DEPT OF BUILDINGS AND GROUNDS, INFORMATION SERVICES, DEPT OF BUSINESS OPERATIONS AND CAPITAL PROGRAMS, HUMAN RESOURCES, PLANNING COMMISSION, ANIMAL CONTROL CENTER, COMMUNITY DEVELOPMENT PROGRAMS, MOSQUITO & RODENT CONTROL, CITY CONSTABLE, COUNCIL ADMINISTRATOR, PURCHASING

The total number for MOSQUITO & RODENT CONTROL is 8

Data Preparation

## # A tibble: 22 x 5
## # Groups:   department_name [22]
##    department_name                retirement     n totEmplyees   perc
##    <chr>                          <lgl>      <int>       <int>  <dbl>
##  1 OFFICE OF THE MAYOR-PRESIDENT  TRUE          28          33 0.848 
##  2 LIBRARY BOARD OF CONTROL       TRUE          25         151 0.166 
##  3 DEPT OF MAINTENANCE            TRUE          21          52 0.404 
##  4 POLICE DEPARTMENT              TRUE          14         196 0.0714
##  5 HUMAN DEVELOPMENT AND SERVICES TRUE          13          65 0.2   
##  6 CITY COURT                     TRUE           9          32 0.281 
##  7 EMERGENCY MEDICAL SERVICES     TRUE           9          63 0.143 
##  8 DEPARTMENT OF PUBLIC WORKS     TRUE           7          55 0.127 
##  9 PARISH ATTORNEY                TRUE           5          28 0.179 
## 10 FINANCE DEPARTMENT             TRUE           4          34 0.118 
## # ... with 12 more rows
…
